{
  "/api/v1/*": {
    "target": {
      "host": "localhost",
      "protocol": "http",
      "port": 5000
    },
    "secure": false,
    "changeOrigin": true,
    "logLevel": "debug",
    "timeout": 250000
  },
  "/media/*": {
    "target": {
      "host": "localhost",
      "protocol": "http",
      "port": 5000
    },
    "secure": false,
    "changeOrigin": true,
    "logLevel": "debug"
  },
  "/public/*": {
    "target": {
      "host": "localhost",
      "protocol": "http",
      "port": 5000
    },
    "secure": false,
    "changeOrigin": true,
    "logLevel": "debug"
  },
  "/master/*": {
    "target": {
      "host": "localhost",
      "protocol": "http",
      "port": 5000
    },
    "secure": false,
    "changeOrigin": true,
    "logLevel": "debug"
  }
}
