<?xml version="1.0" standalone="no"?>
<svg
  height="600"
  viewBox="0 0 600 600"
  width="600"
  xmlns="http://www.w3.org/2000/svg"
>
  <g transform="translate(300,300)">
    <path
      d="M128.6,-185.3C164,-151.3,188,-110.1,193.9,-68.6C199.7,-27,187.4,14.9,163.9,42.7C140.4,70.5,105.7,84.2,76.6,102.1C47.4,119.9,23.7,142,-17.2,165.7C-58.2,189.4,-116.4,214.9,-150.9,198.7C-185.5,182.6,-196.4,125,-211.2,70.7C-226,16.4,-244.7,-34.6,-222.3,-62.6C-199.9,-90.5,-136.4,-95.4,-92.5,-126.6C-48.6,-157.9,-24.3,-215.4,11.2,-230.8C46.6,-246.2,93.3,-219.4,128.6,-185.3Z"
      fill="#f4f4f4"/>
  </g>
</svg>
