<?xml version="1.0" encoding="utf-8"?>
<!-- Generator: Adobe Illustrator 22.1.0, SVG Export Plug-In . SVG Version: 6.00 Build 0)  -->
<svg id="Layer_1" style="enable-background:new 0 0 2250 2250;" version="1.1" viewBox="0 0 2250 2250"
     x="0px"
     xml:space="preserve" xmlns="http://www.w3.org/2000/svg" y="0px">
<style type="text/css">
	.st0 {
    fill: #FFBE00;
  }

  .st1 {
    fill: #005C87;
  }

  .st2 {
    fill: #FFFFFF;
  }

  .st3 {
    fill: #C21906;
  }
</style>
  <g>
	<path class="st0" d="M0,0h2250v1520.8H0V0z"/>
    <path class="st0" d="M0,0h2250v1520.8H0V0z M0,1583.3h2250V2250H0V1583.3z"/>
    <ellipse class="st1" cx="1125" cy="781.3" rx="1083.3" ry="447.9"/>
    <path class="st2" d="M1853.4,543.6v349.8l-67.1,4.8l-7.2-347.4L1853.4,543.6z M1678.5,979.2V972l40.7-40.7h7.2l40.7,40.7v7.2
		l-40.7,40.7h-7.2L1678.5,979.2z M1589.9,979.2V972l40.7-40.7h7.2l40.7,40.7v7.2l-40.7,40.7h-7.2L1589.9,979.2z M1613.9,802.4h12
		c9.6,0,17.3-0.6,23.3-1.7s10.5-2.5,13.9-4.1c3.4-1.6,5.6-3.4,6.7-5.3c1.1-1.9,1.7-3.8,1.7-5.8c0-6.1-0.7-16.8-2.1-32.1
		c-1.4-15.3-3.9-37.4-7.4-66.1l71.9-12c1.3,9,2.5,18.4,3.6,28.5c1.1,10.1,2.1,19.7,3.1,29c1,9.3,1.7,17.7,2.2,25.4
		c0.5,7.7,0.7,13.6,0.7,17.7c0,22-3.2,40.7-9.6,56.1c-6.4,15.3-15.1,27.7-26.1,37.1c-11,9.4-23.7,16.2-38.1,20.4
		c-15,4.2-30.4,6.3-46,6.2h-9.6c-10.2,0-19.1-1.3-26.6-3.8s-14.1-7-19.9-13.4c-3.5,46.6-19.3,82-47.2,106.1s-66.2,36.8-114.8,38.1
		l-16.8-79.1c21.1-4.8,38.4-9.8,52-15.1c13.6-5.3,24.4-10.6,32.6-16c8.2-5.4,13.9-10.8,17.3-16c3.4-5.3,5.3-10.3,6-15.1
		c0-9.6-1.8-27.1-5.3-52.5c-3.5-25.4-9-57.4-16.3-96.1l71.9-19.2c4.2,19.8,8,35.5,11.5,47.2c3.5,11.6,7.6,20.6,12.2,26.8
		c4.6,6.2,10.3,10.2,17,12C1594.2,801.5,1603,802.4,1613.9,802.4L1613.9,802.4z M1424.6,543.6v349.8l-67.1,4.8l-7.2-347.4
		L1424.6,543.6z M1307.2,591.6v7.2l-43.1,43.1h-7.2l-43.1-43.1v-7.2l43.1-43.1h7.2L1307.2,591.6z M1185,895.8
		c-6.7,0-13.6-0.4-20.8-1.2s-14.2-2.5-21.1-5c-6.9-2.6-13.3-6.2-19.4-11c-6.3-5.1-11.6-11.5-15.3-18.7c-6.1,9.6-14.4,18-24.9,25.1
		c-10.5,7.2-23,10.8-37.4,10.8c-5.4,0-11.2-0.6-17.2-1.9c-6.1-1.3-12.1-3.3-18.2-6c-6.1-2.7-11.8-6.1-17.3-10.3
		c-5.4-4.1-10.2-9.3-14.4-15.3c-9.6,14.4-20.1,23.5-31.6,27.5c-11.5,4-23.3,6-35.5,6c-18.2,0-32.5-3.3-42.9-9.8
		c-10.4-6.6-19.3-15.2-26.6-26.1c-8.3,12.1-18.9,21.2-31.6,27.1c-12.8,5.9-29.4,8.9-49.8,8.9h-9.6c-10.9,0-20.2-1.3-28-3.8
		s-14.5-6.9-19.9-12.9v12c0,21.7-4.5,41.3-13.4,58.7s-21.3,32.2-36.9,44.3c-15.6,12.1-34,21.6-54.9,28.3
		c-20.9,6.7-43.4,10.1-67.3,10.1c-47,0-82.3-10.9-105.9-32.8s-35.5-53.3-35.5-94.1c0-11.8,1.9-28.8,5.7-51s12.3-50.7,25.4-85.5
		l57.5,16.8c-3.5,14.4-6.4,27.1-8.6,38.1s-4,20.6-5.3,28.8c-2,12-2.9,24.1-2.9,36.2c0,7.4,1.3,14.1,3.8,20.1
		c2.6,6.1,6.8,11.3,12.7,15.8c5.9,4.5,13.6,8,23,10.5c9.4,2.6,21,3.8,34.7,3.8c16.3,0,30.7-1.4,43.1-4.1
		c12.5-2.7,22.9-6.1,31.4-10.3s14.9-8.8,19.4-13.9c4.5-5.1,6.7-10.1,6.7-14.9l-7.2-345l74.3-7.2v208.4c0,10.2,1.1,18.6,3.4,25.1
		c2.2,6.5,5.5,11.7,9.8,15.3s9.3,6.3,15.1,7.7s12.3,2.2,19.6,2.2h9.6c11.5,0,20.8-1.1,27.8-3.4c7-2.2,12.6-6.3,16.8-12.2
		c4.1-5.9,6.9-14.1,8.4-24.7c1.5-10.5,2.1-24.3,2.1-41.2h64.7v33.3c0,5.9-0.1,11.6-0.2,17c-0.1,5.4-0.4,10.2-0.7,14.4
		c4.2,7.4,9.4,12,15.8,13.9c6.4,1.9,12.6,2.9,18.7,2.9c6.7,0,12.3-1.2,16.8-3.6c4.5-2.4,8.1-6.7,11-12.9c2.9-6.2,5-14.5,6.2-24.9
		s1.9-23.7,1.9-40h64.7v34.5c0,6.1-0.1,12-0.2,17.7c-0.1,5.8-0.4,10.7-0.7,14.9c5.4,6.1,11,10,16.8,11.7c5.8,1.7,11.7,2.6,17.7,2.6
		c5.8,0,10.5-1,14.1-2.9c3.7-1.9,6.5-6,8.6-12.2s3.6-15.3,4.5-27.3s1.4-28.2,1.4-48.6h64.7v51.8c0,15,3.3,25.3,9.8,30.9
		c6.6,5.6,17.6,8.4,33.3,8.4h12c9.6,0,17.3-0.6,23.2-1.7c5.9-1.1,10.5-2.5,13.9-4.1c3.4-1.6,5.6-3.4,6.7-5.3
		c1.1-1.9,1.7-3.8,1.7-5.8c0-6.1-0.7-16.8-2.1-32.1c-1.4-15.3-3.9-37.4-7.4-66.1l71.9-12c1.3,9,2.5,18.4,3.6,28.5
		c1.1,10.1,2.1,19.7,3.1,29c1,9.3,1.7,17.7,2.2,25.4s0.7,13.6,0.7,17.7c0,22-3.2,40.7-9.6,56.1c-6.4,15.3-15.1,27.7-26.1,37.1
		c-11,9.4-23.7,16.2-38.1,20.4c-15,4.2-30.4,6.3-46,6.2H1185z"/>
    <g>
		<path class="st1" d="M1403.5,1821.9l28.8-134.4h-405.1l-27.2,134.4h134.9l-45.6,217.9h153.1l45.5-217.9H1403.5z M982.8,1687.5H782
			l-120.6,261.1l-20.6-261.1H426.3l-134.6,448.3h147.5l87.7-289.3l20.3,289.3h114.3l168.1-310.1l-80.7,310.1h141L982.8,1687.5z
			 M1981.5,1687.5h-141l-74.2,280.2l-149.6-280.2h-133.7l-93.3,448.3h141.1l53.4-264.7l135.3,264.7h147.7L1981.5,1687.5z"/>
      <path class="st3" d="M1082.8,2071.3l-14,64h153.3l13.8-64L1082.8,2071.3z"/>
	</g>
</g>
</svg>
