<?xml version="1.0" encoding="UTF-8"?>
<!DOCTYPE svg PUBLIC "-//W3C//DTD SVG 1.1//EN" "http://www.w3.org/Graphics/SVG/1.1/DTD/svg11.dtd">
<!-- Creator: CorelDRAW X7 -->
<svg height="0.624992in" style="shape-rendering:geometricPrecision; text-rendering:geometricPrecision; image-rendering:optimizeQuality; fill-rule:evenodd; clip-rule:evenodd" version="1.1" viewBox="0 0 903 625" width="0.902772in"
     xml:space="preserve"
     xmlns="http://www.w3.org/2000/svg"
>
 <defs>
  <style type="text/css">
   <
   !
   [CDATA[
   .fil0 {
     fill: #C7C8CA
   }

   ]
   ]
   >
  </style>
 </defs>
  <g id="Layer_x0020_1">
  <metadata id="CorelCorpID_0Corel-Layer"/>
    <path class="fil0"
          d="M49 10l516 0c21,0 38,18 38,39l0 120 -39 40 0 -158 -514 0 0 399 272 0 -40 41 -233 0c-21,0 -39,-18 -39,-39l0 -403c0,-21 18,-39 39,-39zm838 407l0 0c-40,115 -150,198 -280,198 0,0 0,0 0,0 -114,0 -216,-65 -265,-165l63 -63 1 1 0 0c29,86 110,145 201,145l1 0c9,21 30,36 55,36 32,0 59,-27 59,-60 0,-3 0,-6 -1,-9 41,-26 72,-65 88,-112 0,0 0,0 0,0 7,-16 22,-26 39,-26 22,0 41,18 41,41 0,5 -1,9 -2,14l0 0zm-280 86c-76,0 -138,-61 -138,-137l0 -2c0,-2 0,-5 0,-7 0,-1 0,-2 0,-3l0 -31 95 -95 0 135c0,24 20,43 44,43 25,0 44,-19 45,-43l0 -90c0,-26 21,-47 47,-47 25,0 46,21 46,47l0 93c0,75 -62,137 -139,137zm-432 -403c32,0 58,25 58,57 0,32 -26,58 -58,58 -32,0 -58,-26 -58,-58 0,-32 26,-57 58,-57zm162 300l162 -162 -90 -89 -152 152 -47 -47 -94 94 0 52 221 0z"/>
 </g>
</svg>
