<?xml version="1.0" encoding="utf-8"?>
<!-- Generator: Adobe Illustrator 19.1.0, SVG Export Plug-In . SVG Version: 6.00 Build 0)  -->
<svg version="1.1" id="Layer_1" xmlns="http://www.w3.org/2000/svg" xmlns:xlink="http://www.w3.org/1999/xlink" x="0px" y="0px"
	 viewBox="-67 190.9 460 460" style="enable-background:new -67 190.9 460 460;" xml:space="preserve">
<path d="M-59.5,650.9h333.9c4.4,0,7.5-4.1,7.5-8.5V469.8l106.9-106.9c3.1-3.1,3.2-8.2,0.1-11.3l-42.5-42.6c-3.2-3.1-8.3-3.1-11.5,0
	l-53,52.7v-81.2c0.1-2.1-0.7-4.1-2.1-5.7L199,193.5c-1.4-1.6-3.4-2.5-5.5-2.6h-253c-4.4,0-7.5,4.1-7.5,8.5v443
	C-67,646.8-63.9,650.9-59.5,650.9z M195.9,477.5l24.6,24.6l-37,12.4L195.9,477.5z M235.4,494.3l-31.6-31.6l101.5-101.3l31.4,31.4
	L235.4,494.3z M340.9,325.9l31.3,31.3l-24.2,24.3l-31.4-31.4L340.9,325.9z M202,218.7l53.1,53.2H202V218.7z M-51,206.9h237v73.4
	c-0.1,2,0.7,4,2.1,5.4c1.4,1.4,3.4,2.2,5.4,2.1H266v89.6L186.5,457c-0.8,0.8-1.5,1.8-1.8,2.9l-11.3,33.9H0.7c-4.4,0-8,3.6-8,8
	s3.6,8,8,8h167.4l-4.8,14.6c-1,2.8-0.2,6,1.9,8.1c0.6,0.6,1.2,1.3,1.9,1.3H0.7c-4.4,0-8,3.6-8,8s3.6,8,8,8h213c4.4,0,8-3.6,8-8
	s-3.6-8-8-8H175l62.9-20.8c1.1-0.4,2.1-1,2.9-1.8l25.2-25.4v149.1H-51V206.9z"/>
<path d="M213.7,573.9H0.7c-4.4,0-8,3.6-8,8s3.6,8,8,8h213c4.4,0,8-3.6,8-8S218.1,573.9,213.7,573.9z"/>
<path d="M0.7,469.9h113c4.4,0,8-3.6,8-8s-3.6-8-8-8H0.7c-4.4,0-8,3.6-8,8S-3.7,469.9,0.7,469.9z"/>
<g>
	<g>
		<path d="M190,372.4l-65.4-113.2c-3.6-6.3-10.1-10.1-17.4-10.1c-7.3,0-13.8,3.8-17.4,10.1L24.4,372.4c-3.6,6.3-3.6,13.8,0,20.1
			c3.6,6.3,10.1,10.1,17.4,10.1h130.7c7.3,0,13.8-3.8,17.4-10.1C193.6,386.3,193.6,378.7,190,372.4z M181.3,387.5
			c-1.8,3.2-5.1,5-8.7,5H41.8c-3.6,0-6.9-1.9-8.7-5s-1.8-6.9,0-10.1l65.4-113.2c1.8-3.2,5.1-5,8.7-5c3.6,0,6.9,1.9,8.7,5l65.4,113.2
			C183.1,380.6,183.1,384.4,181.3,387.5z"/>
	</g>
</g>
<g>
	<g>
		<rect x="102.2" y="299.2" width="10" height="50.1"/>
	</g>
</g>
<g>
	<g>
		<path d="M107.2,359.3c-3.7,0-6.7,3-6.7,6.7s3,6.7,6.7,6.7c3.7,0,6.7-3,6.7-6.7S110.9,359.3,107.2,359.3z"/>
	</g>
</g>
</svg>
