<?xml version="1.0" encoding="utf-8"?>
<!-- Generator: Adobe Illustrator 19.1.0, SVG Export Plug-In . SVG Version: 6.00 Build 0)  -->
<svg version="1.1" id="Layer_1" xmlns="http://www.w3.org/2000/svg" xmlns:xlink="http://www.w3.org/1999/xlink" x="0px" y="0px"
	 viewBox="-57 180.9 480 480" style="enable-background:new -57 180.9 480 480;" xml:space="preserve">
<style type="text/css">
	.st0{fill:#0FAE4B;}
	.st1{fill:#CA3131;}
</style>
<path class="st0" d="M183,180.9c-132.5,0-240,107.5-240,240s107.5,240,240,240s240-107.5,240-240C422.9,288.4,315.5,181,183,180.9z
	 M183,644.9c-123.7,0-224-100.3-224-224s100.3-224,224-224s224,100.3,224,224C406.9,544.5,306.7,644.7,183,644.9z"/>
<g>
	<path class="st0" d="M143,308.9c-4.4,0-8,3.6-8,8v208c0,4.4,3.6,8,8,8s8-3.6,8-8v-208C151,312.5,147.4,308.9,143,308.9z"/>
	<path class="st0" d="M223,308.9c-4.4,0-8,3.6-8,8v208c0,4.4,3.6,8,8,8s8-3.6,8-8v-208C231,312.5,227.4,308.9,223,308.9z"/>
</g>
</svg>
