<?xml version="1.0" encoding="utf-8"?>
<!-- Generator: Adobe Illustrator 19.1.0, SVG Export Plug-In . SVG Version: 6.00 Build 0)  -->
<svg version="1.1" fill="#fff" id="Capa_1" xmlns="http://www.w3.org/2000/svg" xmlns:xlink="http://www.w3.org/1999/xlink" x="0px" y="0px"
	 viewBox="-42 165.9 510 510" style="enable-background:new -42 165.9 510 510;" xml:space="preserve">
<g>
	<g id="check-circle">
		<path d="M213,165.9c-140.3,0-255,114.8-255,255s114.8,255,255,255s255-114.8,255-255S353.3,165.9,213,165.9z M309.9,553.3
			L213,456.4l-97.1,97.1l-35.3-35.3l35.3-36.1l61.4-61.4l-96.9-96.9l35.3-35.3l36.1,35.3L213,385l96.7-96.7l35.7,35.7l-96.7,96.7
			l96.9,96.9L309.9,553.3z"/>
	</g>
</g>
</svg>
