{
  "$schema": "../schema/geojson.schema.json",
  "module_name": "counties",
  "src": "/static/data/iran-counties.json",
  "title": "شهرها",
  "visible_area": [8, 10],
  "style": [
    {
      "weight": 1,
      "color": "#eee",
      "fillColor": "#fff",
      "fillOpacity": 0.6,
      "refer": { "label": "properties.ADM2_NAME" },
      "labelStyle": {
        "margin": 400,
        "font": "Vazir, Ubuntu",
        "fillColor": "#555",
        "opacity": 0.6
      }
    }
  ],
  "defaults": {
    "_counties": true,
    "_labels": true
  },
  "layers": {},
  "information": false
}
