{
  "states": [
    {
      "code": "10",
      "name": "اصفهان",
      "cities": [
        {
          "code": "01",
          "name": "اردستان"
        },
        {
          "code": "02",
          "name": "اصفهان"
        },
        {
          "code": "03",
          "name": "خميني شهر"
        },
        {
          "code": "04",
          "name": "خوانسار"
        },
        {
          "code": "05",
          "name": "سميرم"
        },
        {
          "code": "06",
          "name": "فريدن"
        },
        {
          "code": "07",
          "name": "فريدونشهر"
        },
        {
          "code": "08",
          "name": "فلاورجان"
        },
        {
          "code": "09",
          "name": "شهرضا"
        },
        {
          "code": "10",
          "name": "کاشان"
        },
        {
          "code": "11",
          "name": "گلپايگان"
        },
        {
          "code": "12",
          "name": "لنجان"
        },
        {
          "code": "13",
          "name": "نايين"
        },
        {
          "code": "14",
          "name": "نجف آباد"
        },
        {
          "code": "15",
          "name": "نطنز"
        },
        {
          "code": "16",
          "name": "شاهين شهروميمه"
        },
        {
          "code": "17",
          "name": "مبارکه"
        },
        {
          "code": "18",
          "name": "آران وبيدگل"
        },
        {
          "code": "19",
          "name": "تيران وکرون"
        },
        {
          "code": "20",
          "name": "چادگان"
        },
        {
          "code": "21",
          "name": "دهاقان"
        },
        {
          "code": "22",
          "name": "برخوار"
        },
        {
          "code": "23",
          "name": "خور و بيابانک"
        },
        {
          "code": "24",
          "name": "بو يين و مياندشت"
        }
      ]
    },
    {
      "code": "11",
      "name": "سيستان وبلوچستان",
      "cities": [
        {
          "code": "01",
          "name": "ايرانشهر"
        },
        {
          "code": "02",
          "name": "چابهار"
        },
        {
          "code": "03",
          "name": "خاش"
        },
        {
          "code": "04",
          "name": "زابل"
        },
        {
          "code": "05",
          "name": "زاهدان"
        },
        {
          "code": "06",
          "name": "سراوان"
        },
        {
          "code": "07",
          "name": "نيك شهر"
        },
        {
          "code": "08",
          "name": "سرباز"
        },
        {
          "code": "09",
          "name": "كنارك"
        },
        {
          "code": "10",
          "name": "زهك"
        },
        {
          "code": "11",
          "name": "هيرمند"
        },
        {
          "code": "12",
          "name": "دلگان"
        },
        {
          "code": "13",
          "name": "مهرستان"
        },
        {
          "code": "14",
          "name": "سيب و سوران"
        },
        {
          "code": "15",
          "name": "نيمروز"
        },
        {
          "code": "16",
          "name": "هامون"
        },
        {
          "code": "17",
          "name": "ميرجاوه"
        },
        {
          "code": "18",
          "name": "قصرقند"
        },
        {
          "code": "19",
          "name": "فنوج"
        }
      ]
    },
    {
      "code": "12",
      "name": "كردستان",
      "cities": [
        {
          "code": "01",
          "name": "بانه"
        },
        {
          "code": "02",
          "name": "بيجار"
        },
        {
          "code": "03",
          "name": "سقز"
        },
        {
          "code": "04",
          "name": "سنندج"
        },
        {
          "code": "05",
          "name": "قروه"
        },
        {
          "code": "06",
          "name": "مريوان"
        },
        {
          "code": "07",
          "name": "ديواندره"
        },
        {
          "code": "08",
          "name": "كامياران"
        },
        {
          "code": "09",
          "name": "سروآباد"
        },
        {
          "code": "10",
          "name": "دهگلان"
        }
      ]
    },
    {
      "code": "13",
      "name": "همدان",
      "cities": [
        {
          "code": "01",
          "name": "تويسركان"
        },
        {
          "code": "02",
          "name": "ملاير"
        },
        {
          "code": "03",
          "name": "نهاوند"
        },
        {
          "code": "04",
          "name": "همدان"
        },
        {
          "code": "05",
          "name": "كبودرآهنگ"
        },
        {
          "code": "06",
          "name": "اسدآباد"
        },
        {
          "code": "07",
          "name": "بهار"
        },
        {
          "code": "08",
          "name": "رزن"
        },
        {
          "code": "09",
          "name": "فامنين"
        }
      ]
    },
    {
      "code": "14",
      "name": "چهارمحال وبختيارئ",
      "cities": [
        {
          "code": "01",
          "name": "بروجن"
        },
        {
          "code": "02",
          "name": "شهركرد"
        },
        {
          "code": "03",
          "name": "فارسان"
        },
        {
          "code": "04",
          "name": "لردگان"
        },
        {
          "code": "05",
          "name": "اردل"
        },
        {
          "code": "06",
          "name": "كوهرنگ"
        },
        {
          "code": "07",
          "name": "كيار"
        },
        {
          "code": "08",
          "name": "سامان"
        },
        {
          "code": "09",
          "name": "بن"
        }
      ]
    },
    {
      "code": "15",
      "name": "لرستان",
      "cities": [
        {
          "code": "01",
          "name": "اليگودرز"
        },
        {
          "code": "02",
          "name": "بروجرد"
        },
        {
          "code": "03",
          "name": "خرم آباد"
        },
        {
          "code": "04",
          "name": "دلفان"
        },
        {
          "code": "05",
          "name": "دورود"
        },
        {
          "code": "06",
          "name": "کوهدشت"
        },
        {
          "code": "07",
          "name": "ازنا"
        },
        {
          "code": "08",
          "name": "پلدختر"
        },
        {
          "code": "09",
          "name": "سلسله"
        },
        {
          "code": "10",
          "name": "دوره"
        },
        {
          "code": "11",
          "name": "رومشکان"
        }
      ]
    },
    {
      "code": "16",
      "name": "ايلام",
      "cities": [
        {
          "code": "01",
          "name": "ايلام"
        },
        {
          "code": "02",
          "name": "دره شهر"
        },
        {
          "code": "03",
          "name": "دهلران"
        },
        {
          "code": "04",
          "name": "چرداول"
        },
        {
          "code": "05",
          "name": "مهران"
        },
        {
          "code": "06",
          "name": "آبدانان"
        },
        {
          "code": "07",
          "name": "ايوان"
        },
        {
          "code": "08",
          "name": "ملكشاهي"
        },
        {
          "code": "09",
          "name": "سيروان"
        },
        {
          "code": "10",
          "name": "بدره"
        }
      ]
    },
    {
      "code": "17",
      "name": "كهگيلويه وبويراحمد",
      "cities": [
        {
          "code": "01",
          "name": "بويراحمد"
        },
        {
          "code": "02",
          "name": "كهگيلويه"
        },
        {
          "code": "03",
          "name": "گچساران"
        },
        {
          "code": "04",
          "name": "دنا"
        },
        {
          "code": "05",
          "name": "بهمئي"
        },
        {
          "code": "06",
          "name": "چرام"
        },
        {
          "code": "07",
          "name": "باشت"
        },
        {
          "code": "08",
          "name": "لنده"
        }
      ]
    },
    {
      "code": "18",
      "name": "بوشهر",
      "cities": [
        {
          "code": "01",
          "name": "بوشهر"
        },
        {
          "code": "02",
          "name": "تنگستان"
        },
        {
          "code": "03",
          "name": "دشتستان"
        },
        {
          "code": "04",
          "name": "دشتي"
        },
        {
          "code": "05",
          "name": "دير"
        },
        {
          "code": "06",
          "name": "كنگان"
        },
        {
          "code": "07",
          "name": "گناوه"
        },
        {
          "code": "08",
          "name": "ديلم"
        },
        {
          "code": "09",
          "name": "جم"
        },
        {
          "code": "10",
          "name": "عسلويه"
        }
      ]
    },
    {
      "code": "19",
      "name": "زنجان",
      "cities": [
        {
          "code": "01",
          "name": "ابهر"
        },
        {
          "code": "03",
          "name": "خدابنده"
        },
        {
          "code": "04",
          "name": "زنجان"
        },
        {
          "code": "06",
          "name": "ايجرود"
        },
        {
          "code": "07",
          "name": "خرمدره"
        },
        {
          "code": "08",
          "name": "طارم"
        },
        {
          "code": "09",
          "name": "ماهنشان"
        },
        {
          "code": "10",
          "name": "سلطانيه"
        }
      ]
    },
    {
      "code": "20",
      "name": "سمنان",
      "cities": [
        {
          "code": "01",
          "name": "دامغان"
        },
        {
          "code": "02",
          "name": "سمنان"
        },
        {
          "code": "03",
          "name": "شاهرود"
        },
        {
          "code": "04",
          "name": "گرمسار"
        },
        {
          "code": "05",
          "name": "مهدئ شهر"
        },
        {
          "code": "06",
          "name": "آرادان"
        },
        {
          "code": "07",
          "name": "ميامي"
        },
        {
          "code": "08",
          "name": "سرخه"
        }
      ]
    },
    {
      "code": "21",
      "name": "يزد",
      "cities": [
        {
          "code": "01",
          "name": "اردكان"
        },
        {
          "code": "02",
          "name": "بافق"
        },
        {
          "code": "03",
          "name": "تفت"
        },
        {
          "code": "04",
          "name": "مهريز"
        },
        {
          "code": "05",
          "name": "يزد"
        },
        {
          "code": "06",
          "name": "ميبد"
        },
        {
          "code": "07",
          "name": "ابركوه"
        },
        {
          "code": "08",
          "name": "اشکذر"
        },
        {
          "code": "09",
          "name": "خاتم"
        },
        {
          "code": "11",
          "name": "بهاباد"
        }
      ]
    },
    {
      "code": "22",
      "name": "هرمزگان",
      "cities": [
        {
          "code": "01",
          "name": "ابوموسي"
        },
        {
          "code": "02",
          "name": "بندرعباس"
        },
        {
          "code": "03",
          "name": "بندرلنگه"
        },
        {
          "code": "04",
          "name": "قشم"
        },
        {
          "code": "05",
          "name": "ميناب"
        },
        {
          "code": "06",
          "name": "جاسك"
        },
        {
          "code": "07",
          "name": "رودان"
        },
        {
          "code": "08",
          "name": "حاجي اباد"
        },
        {
          "code": "09",
          "name": "بستك"
        },
        {
          "code": "10",
          "name": "خمير"
        },
        {
          "code": "11",
          "name": "پارسيان"
        },
        {
          "code": "12",
          "name": "سيريك"
        },
        {
          "code": "13",
          "name": "بشاگرد"
        }
      ]
    },
    {
      "code": "23",
      "name": "تهران",
      "cities": [
        {
          "code": "01",
          "name": "تهران"
        },
        {
          "code": "02",
          "name": "دماوند"
        },
        {
          "code": "03",
          "name": "رئ"
        },
        {
          "code": "04",
          "name": "شميرانات"
        },
        {
          "code": "06",
          "name": "ورامين"
        },
        {
          "code": "09",
          "name": "شهريار"
        },
        {
          "code": "10",
          "name": "اسلامشهر"
        },
        {
          "code": "12",
          "name": "رباطكريم"
        },
        {
          "code": "13",
          "name": "پاكدشت"
        },
        {
          "code": "14",
          "name": "فيروزكوه"
        },
        {
          "code": "16",
          "name": "قدس"
        },
        {
          "code": "17",
          "name": "ملارد"
        },
        {
          "code": "18",
          "name": "پيشوا"
        },
        {
          "code": "19",
          "name": "بهارستان"
        },
        {
          "code": "20",
          "name": "پرديس"
        },
        {
          "code": "21",
          "name": "قرچک"
        }
      ]
    },
    {
      "code": "24",
      "name": "اردبيل",
      "cities": [
        {
          "code": "01",
          "name": "اردبيل"
        },
        {
          "code": "02",
          "name": "بيله سوار"
        },
        {
          "code": "03",
          "name": "خلخال"
        },
        {
          "code": "04",
          "name": "مشگين شهر"
        },
        {
          "code": "05",
          "name": "گرمي"
        },
        {
          "code": "06",
          "name": "پارس آباد"
        },
        {
          "code": "07",
          "name": "كوثر"
        },
        {
          "code": "08",
          "name": "نمين"
        },
        {
          "code": "09",
          "name": "نير"
        },
        {
          "code": "10",
          "name": "سرعين"
        }
      ]
    },
    {
      "code": "25",
      "name": "قم",
      "cities": [
        {
          "code": "01",
          "name": "قم"
        }
      ]
    },
    {
      "code": "26",
      "name": "قزوين",
      "cities": [
        {
          "code": "01",
          "name": "بوئين زهرا"
        },
        {
          "code": "02",
          "name": "تاكستان"
        },
        {
          "code": "03",
          "name": "قزوين"
        },
        {
          "code": "04",
          "name": "آبيك"
        },
        {
          "code": "05",
          "name": "البرز"
        },
        {
          "code": "06",
          "name": "آوج"
        }
      ]
    },
    {
      "code": "27",
      "name": "گلستان",
      "cities": [
        {
          "code": "01",
          "name": "بندرگز"
        },
        {
          "code": "02",
          "name": "تركمن"
        },
        {
          "code": "03",
          "name": "علي آباد"
        },
        {
          "code": "04",
          "name": "كردكوئ"
        },
        {
          "code": "05",
          "name": "گرگان"
        },
        {
          "code": "06",
          "name": "گنبدكاووس"
        },
        {
          "code": "07",
          "name": "مينودشت"
        },
        {
          "code": "08",
          "name": "آق قلا"
        },
        {
          "code": "09",
          "name": "كلاله"
        },
        {
          "code": "10",
          "name": "آزادشهر"
        },
        {
          "code": "11",
          "name": "راميان"
        },
        {
          "code": "12",
          "name": "مراوه تپه"
        },
        {
          "code": "13",
          "name": "گميشان"
        },
        {
          "code": "14",
          "name": "گاليكش"
        }
      ]
    },
    {
      "code": "28",
      "name": "خراسان شمالي",
      "cities": [
        {
          "code": "01",
          "name": "اسفراين"
        },
        {
          "code": "02",
          "name": "بجنورد"
        },
        {
          "code": "03",
          "name": "جاجرم"
        },
        {
          "code": "04",
          "name": "شيروان"
        },
        {
          "code": "05",
          "name": "فاروج"
        },
        {
          "code": "06",
          "name": "مانه وسملقان"
        },
        {
          "code": "07",
          "name": "گرمه"
        },
        {
          "code": "08",
          "name": "راز و جرگلان"
        }
      ]
    },
    {
      "code": "29",
      "name": "خراسان جنوبي",
      "cities": [
        {
          "code": "01",
          "name": "بيرجند"
        },
        {
          "code": "02",
          "name": "درميان"
        },
        {
          "code": "03",
          "name": "سربيشه"
        },
        {
          "code": "04",
          "name": "قائنات"
        },
        {
          "code": "05",
          "name": "نهبندان"
        },
        {
          "code": "06",
          "name": "سرايان"
        },
        {
          "code": "07",
          "name": "فردوس"
        },
        {
          "code": "08",
          "name": "بشرويه"
        },
        {
          "code": "09",
          "name": "زيرکوه"
        },
        {
          "code": "10",
          "name": "خوسف"
        },
        {
          "code": "11",
          "name": "طبس"
        }
      ]
    },
    {
      "code": "30",
      "name": "البرز",
      "cities": [
        {
          "code": "01",
          "name": "کرج"
        },
        {
          "code": "02",
          "name": "ساوجبلاغ"
        },
        {
          "code": "03",
          "name": "نظرآباد"
        },
        {
          "code": "04",
          "name": "طالقان"
        },
        {
          "code": "05",
          "name": "اشتهارد"
        },
        {
          "code": "06",
          "name": "فرديس"
        }
      ]
    },
    {
      "code": "00",
      "name": "مرکزي",
      "cities": [
        {
          "code": "01",
          "name": "اراک"
        },
        {
          "code": "02",
          "name": "آشتيان"
        },
        {
          "code": "03",
          "name": "تفرش"
        },
        {
          "code": "04",
          "name": "خمين"
        },
        {
          "code": "05",
          "name": "دليجان"
        },
        {
          "code": "06",
          "name": "ساوه"
        },
        {
          "code": "07",
          "name": "شازند"
        },
        {
          "code": "09",
          "name": "محلات"
        },
        {
          "code": "10",
          "name": "زرنديه"
        },
        {
          "code": "11",
          "name": "کميجان"
        },
        {
          "code": "12",
          "name": "خنداب"
        },
        {
          "code": "13",
          "name": "فراهان"
        }
      ]
    },
    {
      "code": "01",
      "name": "گيلان",
      "cities": [
        {
          "code": "01",
          "name": "آستارا"
        },
        {
          "code": "02",
          "name": "آستانه اشرفيه"
        },
        {
          "code": "03",
          "name": "بندرانزلي"
        },
        {
          "code": "04",
          "name": "طوالش"
        },
        {
          "code": "05",
          "name": "رشت"
        },
        {
          "code": "06",
          "name": "رودبار"
        },
        {
          "code": "07",
          "name": "رودسر"
        },
        {
          "code": "08",
          "name": "صومعه سرا"
        },
        {
          "code": "09",
          "name": "فومن"
        },
        {
          "code": "10",
          "name": "لنگرود"
        },
        {
          "code": "11",
          "name": "لاهيجان"
        },
        {
          "code": "12",
          "name": "شفت"
        },
        {
          "code": "13",
          "name": "املش"
        },
        {
          "code": "14",
          "name": "رضوانشهر"
        },
        {
          "code": "15",
          "name": "سياهكل"
        },
        {
          "code": "16",
          "name": "ماسال"
        }
      ]
    },
    {
      "code": "02",
      "name": "مازندران",
      "cities": [
        {
          "code": "01",
          "name": "آمل"
        },
        {
          "code": "02",
          "name": "بابل"
        },
        {
          "code": "04",
          "name": "بهشهر"
        },
        {
          "code": "05",
          "name": "تنكابن"
        },
        {
          "code": "06",
          "name": "رامسر"
        },
        {
          "code": "07",
          "name": "سارئ"
        },
        {
          "code": "08",
          "name": "سوادكوه"
        },
        {
          "code": "10",
          "name": "قائم شهر"
        },
        {
          "code": "14",
          "name": "نور"
        },
        {
          "code": "15",
          "name": "نوشهر"
        },
        {
          "code": "16",
          "name": "بابلسر"
        },
        {
          "code": "18",
          "name": "محمودآباد"
        },
        {
          "code": "19",
          "name": "نكا"
        },
        {
          "code": "20",
          "name": "چالوس"
        },
        {
          "code": "21",
          "name": "جويبار"
        },
        {
          "code": "22",
          "name": "گلوگاه"
        },
        {
          "code": "23",
          "name": "فريدونكنار"
        },
        {
          "code": "24",
          "name": "عباس آباد"
        },
        {
          "code": "25",
          "name": "مياندورود"
        },
        {
          "code": "26",
          "name": "سيمرغ"
        },
        {
          "code": "27",
          "name": "سوادکوه شمالي"
        },
        {
          "code": "28",
          "name": "کلاردشت"
        }
      ]
    },
    {
      "code": "03",
      "name": "آذربايجان شرقي",
      "cities": [
        {
          "code": "02",
          "name": "اهر"
        },
        {
          "code": "03",
          "name": "تبريز"
        },
        {
          "code": "05",
          "name": "سراب"
        },
        {
          "code": "06",
          "name": "مراغه"
        },
        {
          "code": "07",
          "name": "مرند"
        },
        {
          "code": "10",
          "name": "ميانه"
        },
        {
          "code": "11",
          "name": "هشترود"
        },
        {
          "code": "12",
          "name": "بناب"
        },
        {
          "code": "13",
          "name": "بستان آباد"
        },
        {
          "code": "14",
          "name": "شبستر"
        },
        {
          "code": "15",
          "name": "کليبر"
        },
        {
          "code": "16",
          "name": "هريس"
        },
        {
          "code": "19",
          "name": "جلفا"
        },
        {
          "code": "20",
          "name": "ملکان"
        },
        {
          "code": "21",
          "name": "آذرشهر"
        },
        {
          "code": "22",
          "name": "اسکو"
        },
        {
          "code": "23",
          "name": "چاراويماق"
        },
        {
          "code": "24",
          "name": "ورزقان"
        },
        {
          "code": "25",
          "name": "عجب شير"
        },
        {
          "code": "26",
          "name": "خداآفرين"
        }
      ]
    },
    {
      "code": "04",
      "name": "آذربايجان غربي",
      "cities": [
        {
          "code": "01",
          "name": "اروميه"
        },
        {
          "code": "02",
          "name": "پيرانشهر"
        },
        {
          "code": "03",
          "name": "خوئ"
        },
        {
          "code": "04",
          "name": "سردشت"
        },
        {
          "code": "05",
          "name": "سلماس"
        },
        {
          "code": "06",
          "name": "ماكو"
        },
        {
          "code": "07",
          "name": "مهاباد"
        },
        {
          "code": "08",
          "name": "مياندوآب"
        },
        {
          "code": "09",
          "name": "نقده"
        },
        {
          "code": "10",
          "name": "بوكان"
        },
        {
          "code": "11",
          "name": "شاهين دژ"
        },
        {
          "code": "12",
          "name": "تكاب"
        },
        {
          "code": "13",
          "name": "اشنويه"
        },
        {
          "code": "14",
          "name": "چالدران"
        },
        {
          "code": "15",
          "name": "پلدشت"
        },
        {
          "code": "16",
          "name": "چايپاره"
        },
        {
          "code": "17",
          "name": "شوط"
        }
      ]
    },
    {
      "code": "05",
      "name": "کرمانشاه",
      "cities": [
        {
          "code": "01",
          "name": "اسلام آبادغرب"
        },
        {
          "code": "02",
          "name": "کرمانشاه"
        },
        {
          "code": "03",
          "name": "پاوه"
        },
        {
          "code": "04",
          "name": "سرپل ذهاب"
        },
        {
          "code": "05",
          "name": "سنقر"
        },
        {
          "code": "06",
          "name": "قصرشيرين"
        },
        {
          "code": "07",
          "name": "کنگاور"
        },
        {
          "code": "08",
          "name": "گيلانغرب"
        },
        {
          "code": "09",
          "name": "جوانرود"
        },
        {
          "code": "10",
          "name": "صحنه"
        },
        {
          "code": "11",
          "name": "هرسين"
        },
        {
          "code": "12",
          "name": "ثلاث باباجاني"
        },
        {
          "code": "13",
          "name": "دالاهو"
        },
        {
          "code": "14",
          "name": "روانسر"
        }
      ]
    },
    {
      "code": "06",
      "name": "خوزستان",
      "cities": [
        {
          "code": "01",
          "name": "آبادان"
        },
        {
          "code": "02",
          "name": "انديمشک"
        },
        {
          "code": "03",
          "name": "اهواز"
        },
        {
          "code": "04",
          "name": "ايذه"
        },
        {
          "code": "05",
          "name": "بندرماهشهر"
        },
        {
          "code": "06",
          "name": "بهبهان"
        },
        {
          "code": "07",
          "name": "خرمشهر"
        },
        {
          "code": "08",
          "name": "دزفول"
        },
        {
          "code": "09",
          "name": "دشت آزادگان"
        },
        {
          "code": "10",
          "name": "رامهرمز"
        },
        {
          "code": "11",
          "name": "شادگان"
        },
        {
          "code": "12",
          "name": "شوشتر"
        },
        {
          "code": "13",
          "name": "مسجدسليمان"
        },
        {
          "code": "14",
          "name": "شوش"
        },
        {
          "code": "15",
          "name": "باغ ملک"
        },
        {
          "code": "16",
          "name": "اميديه"
        },
        {
          "code": "17",
          "name": "لالي"
        },
        {
          "code": "18",
          "name": "هنديجان"
        },
        {
          "code": "19",
          "name": "رامشير"
        },
        {
          "code": "20",
          "name": "گتوند"
        },
        {
          "code": "21",
          "name": "انديکا"
        },
        {
          "code": "22",
          "name": "هفتکل"
        },
        {
          "code": "23",
          "name": "هويزه"
        },
        {
          "code": "24",
          "name": "باوي"
        },
        {
          "code": "25",
          "name": "حميديه"
        },
        {
          "code": "26",
          "name": "آغاجاري"
        },
        {
          "code": "27",
          "name": "کارون"
        }
      ]
    },
    {
      "code": "07",
      "name": "فارس",
      "cities": [
        {
          "code": "01",
          "name": "آباده"
        },
        {
          "code": "02",
          "name": "استهبان"
        },
        {
          "code": "03",
          "name": "اقليد"
        },
        {
          "code": "04",
          "name": "جهرم"
        },
        {
          "code": "05",
          "name": "داراب"
        },
        {
          "code": "06",
          "name": "سپيدان"
        },
        {
          "code": "07",
          "name": "شيراز"
        },
        {
          "code": "08",
          "name": "فسا"
        },
        {
          "code": "09",
          "name": "فيروزآباد"
        },
        {
          "code": "10",
          "name": "کازرون"
        },
        {
          "code": "11",
          "name": "لارستان"
        },
        {
          "code": "12",
          "name": "مرودشت"
        },
        {
          "code": "13",
          "name": "ممسني"
        },
        {
          "code": "14",
          "name": "ني ريز"
        },
        {
          "code": "15",
          "name": "لامرد"
        },
        {
          "code": "16",
          "name": "بوانات"
        },
        {
          "code": "17",
          "name": "ارسنجان"
        },
        {
          "code": "18",
          "name": "خرم بيد"
        },
        {
          "code": "19",
          "name": "زرين دشت"
        },
        {
          "code": "20",
          "name": "قيروکارزين"
        },
        {
          "code": "21",
          "name": "مهر"
        },
        {
          "code": "22",
          "name": "فراشبند"
        },
        {
          "code": "23",
          "name": "پاسارگاد"
        },
        {
          "code": "24",
          "name": "خنج"
        },
        {
          "code": "25",
          "name": "سروستان"
        },
        {
          "code": "26",
          "name": "رستم"
        },
        {
          "code": "27",
          "name": "گراش"
        },
        {
          "code": "28",
          "name": "کوار"
        },
        {
          "code": "29",
          "name": "خرامه"
        }
      ]
    },
    {
      "code": "08",
      "name": "كرمان",
      "cities": [
        {
          "code": "01",
          "name": "بافت"
        },
        {
          "code": "02",
          "name": "بم"
        },
        {
          "code": "03",
          "name": "جيرفت"
        },
        {
          "code": "04",
          "name": "رفسنجان"
        },
        {
          "code": "05",
          "name": "زرند"
        },
        {
          "code": "06",
          "name": "سيرجان"
        },
        {
          "code": "07",
          "name": "شهربابك"
        },
        {
          "code": "08",
          "name": "كرمان"
        },
        {
          "code": "09",
          "name": "كهنوج"
        },
        {
          "code": "10",
          "name": "بردسير"
        },
        {
          "code": "11",
          "name": "راور"
        },
        {
          "code": "12",
          "name": "عنبرآباد"
        },
        {
          "code": "13",
          "name": "منوجان"
        },
        {
          "code": "14",
          "name": "كوهبنان"
        },
        {
          "code": "15",
          "name": "رودبارجنوب"
        },
        {
          "code": "16",
          "name": "قلعه گنج"
        },
        {
          "code": "17",
          "name": "ريگان"
        },
        {
          "code": "18",
          "name": "رابر"
        },
        {
          "code": "19",
          "name": "فهرج"
        },
        {
          "code": "20",
          "name": "انار"
        },
        {
          "code": "21",
          "name": "نرماشير"
        },
        {
          "code": "22",
          "name": "فارياب"
        },
        {
          "code": "23",
          "name": "ارزوئيه"
        }
      ]
    },
    {
      "code": "09",
      "name": "خراسان رضوئ",
      "cities": [
        {
          "code": "04",
          "name": "تايباد"
        },
        {
          "code": "05",
          "name": "تربت حيدريه"
        },
        {
          "code": "06",
          "name": "تربت جام"
        },
        {
          "code": "07",
          "name": "درگز"
        },
        {
          "code": "08",
          "name": "سبزوار"
        },
        {
          "code": "13",
          "name": "قوچان"
        },
        {
          "code": "14",
          "name": "كاشمر"
        },
        {
          "code": "15",
          "name": "گناباد"
        },
        {
          "code": "16",
          "name": "مشهد"
        },
        {
          "code": "17",
          "name": "نيشابور"
        },
        {
          "code": "18",
          "name": "چناران"
        },
        {
          "code": "19",
          "name": "خواف"
        },
        {
          "code": "20",
          "name": "سرخس"
        },
        {
          "code": "22",
          "name": "فريمان"
        },
        {
          "code": "23",
          "name": "بردسكن"
        },
        {
          "code": "27",
          "name": "رشتخوار"
        },
        {
          "code": "28",
          "name": "كلات"
        },
        {
          "code": "29",
          "name": "خليل آباد"
        },
        {
          "code": "30",
          "name": "مه ولات"
        },
        {
          "code": "31",
          "name": "بجستان"
        },
        {
          "code": "32",
          "name": "بينالود"
        },
        {
          "code": "33",
          "name": "فيروزه"
        },
        {
          "code": "34",
          "name": "جغتاي"
        },
        {
          "code": "35",
          "name": "زاوه"
        },
        {
          "code": "36",
          "name": "جوين"
        },
        {
          "code": "37",
          "name": "باخرز"
        },
        {
          "code": "38",
          "name": "خوشاب"
        },
        {
          "code": "39",
          "name": "داورزن"
        }
      ]
    }
  ]
}
