<?xml version="1.0" encoding="UTF-8"?>
<!DOCTYPE svg PUBLIC "-//W3C//DTD SVG 1.1//EN" "http://www.w3.org/Graphics/SVG/1.1/DTD/svg11.dtd">
<!-- Creator: CorelDRAW X7 -->
<svg xmlns="http://www.w3.org/2000/svg" xml:space="preserve" width="6.66666in" height="1.75999in" version="1.1" style="shape-rendering:geometricPrecision; text-rendering:geometricPrecision; image-rendering:optimizeQuality; fill-rule:evenodd; clip-rule:evenodd"
viewBox="0 0 6667 1760"
 xmlns:xlink="http://www.w3.org/1999/xlink">
 <defs>
  <style type="text/css"><![CDATA[
   .fil0 { fill:var(--fill, #b9b1ac); fill-rule:nonzero }
  ]]></style>
 </defs>
 <g id="__x0023_Layer_x0020_1">
  <metadata id="CorelCorpID_0Corel-Layer"/>
  <g id="_489427725184">
   <g>
    <path class="fil0" d="M6666 759c-3,301 -239,546 -535,565l0 -1c-65,0 -118,-53 -118,-118 0,-66 53,-119 118,-119l0 0c160,-8 288,-122 296,-282l1 -15 0 -30 0 -299c0,-5 0,-9 1,-14l0 -73 238 -149 0 233c0,1 0,2 0,3l-1 299zm-632 195l0 0c-78,206 -270,355 -498,370l0 -1c-66,0 -118,-53 -118,-118 0,-66 52,-119 118,-119l0 0c103,-5 194,-54 246,-132l-75 0 -8 0 0 -1c-198,-4 -357,-165 -357,-364 0,-199 159,-361 357,-365l0 0 8 0 82 0 0 179 0 59 -21 0c-112,4 -188,27 -188,127 0,104 88,124 214,126l38 0 0 -326 0 -48 0 0c1,-65 54,-118 119,-118 64,0 117,53 118,118l1 0 0 374 150 0 -149 239 -37 0zm-1034 254l0 0 0 -90 0 -879 0 -1 0 -89 238 -149 0 239 0 879 0 208 -238 0 0 -118zm-730 118l0 0c-344,0 -623,-262 -625,-585l0 0 0 -296 0 0c0,-3 1,-5 1,-8l0 -64 238 -149 0 238 0 0 0 229c3,219 152,395 371,395 221,0 400,-180 400,-402 0,-1 0,-2 0,-3l2 0 0 -340 0 0c1,-65 54,-117 119,-117 64,0 117,52 118,117l1 0 0 398 0 32 -1 0c-17,309 -290,555 -624,555zm99 -785l0 0c-19,9 -39,19 -62,27 -23,8 -46,15 -71,21 -6,-3 -15,-7 -27,-11 -12,-4 -23,-8 -35,-12 -12,-4 -22,-8 -31,-12 -9,-5 -13,-10 -13,-15 -2,-47 -7,-85 -13,-115 -6,-30 -9,-55 -9,-74 0,-12 2,-23 6,-32 4,-10 11,-18 22,-27 10,-8 25,-16 43,-23 18,-7 42,-15 71,-24 2,5 3,10 3,15 0,4 2,6 7,6 13,-11 23,-19 29,-25 6,-7 12,-11 18,-13 6,-2 13,-3 22,-3 8,0 21,0 39,0 12,0 22,13 31,39 8,26 14,55 19,87 4,31 8,73 11,124 0,12 -5,24 -16,35 -11,11 -26,21 -44,32zm-1155 667l0 0 -1 0 0 -984 1 0 0 -75 238 -149 0 239 -1 0 0 938 1 0 0 149 -238 0 0 -118zm-120 -449l0 0 0 0c-4,301 -238,546 -535,565l0 -1c-65,0 -118,-53 -118,-118 0,-66 53,-119 118,-119l0 0c161,-8 289,-122 296,-282l1 -15 0 -30 0 -219 0 -49 0 0c0,-5 1,-9 1,-14l0 -74 238 -149 0 238 -1 0 0 267zm-466 -526l0 0c-3,10 -7,20 -11,28 -4,8 -9,12 -14,12 -21,1 -113,2 -205,7 -92,6 -183,16 -197,19 -27,6 -49,8 -66,8 -11,0 -21,-1 -30,-5 -8,-3 -16,-10 -24,-20 -8,-9 -15,-22 -21,-39 -7,-17 -14,-38 -22,-64 5,-2 9,-3 13,-3 4,0 7,-2 7,-6 -11,-13 -18,-21 -24,-27 -5,-6 -9,-11 -11,-17 -2,-5 -3,-12 -3,-19 0,-8 0,-20 0,-36 0,-11 12,-20 35,-28 24,-8 50,-13 79,-17 13,-2 86,-10 168,-15 102,-6 217,-9 242,-11 11,0 22,5 32,15 10,10 20,24 29,40 9,17 17,36 25,56 7,21 14,43 19,65 -3,6 -7,14 -10,25 -4,10 -7,21 -11,32zm-589 1093l0 0c-51,0 -91,-9 -135,-27 -45,-18 -84,-43 -119,-75 -35,32 -74,57 -119,75 -43,17 -84,26 -133,27l0 0c-53,0 -90,-14 -137,-34 -47,-20 -88,-47 -122,-82 -35,-35 -63,-76 -83,-123 -20,-47 -30,-97 -30,-150l0 -788 238 -149 0 934c0,23 4,43 11,60 8,17 19,32 32,43 13,12 28,21 44,28 17,6 30,8 47,8l0 4c15,0 30,-3 45,-9 17,-6 32,-15 45,-27 13,-11 23,-26 32,-43 8,-18 12,-38 12,-60l0 -252 237 -149 0 401c0,22 4,42 12,60 8,17 18,32 31,43 13,12 27,21 44,27 16,7 31,10 48,10l0 248zm-1280 0l0 0 0 0 -8 0 -215 0 -149 0 -238 0 -94 -150c-10,-14 -20,-29 -28,-44l-27 -44 8 0 379 0 45 0 0 0c2,0 4,0 7,0 1,0 1,0 2,0l124 0 125 0c112,-4 188,-27 188,-127 0,-104 -88,-124 -214,-126l-9 0 0 0c-112,2 -194,19 -209,98l0 22c0,65 -53,117 -118,117 0,0 0,0 -1,0l0 1 -119 0 0 -118 0 0 0 -16 -1 0c0,-6 1,-13 1,-19l0 -681 0 0 0 -90 238 -149 0 213c0,3 0,7 0,10 0,0 0,0 0,1l0 0 0 394c37,-13 76,-21 117,-21l0 -1 7 0 40 0 45 0 96 0 8 0 0 1c198,4 357,165 357,364 0,199 -159,361 -357,365zm1372 -258l0 0c16,-6 30,-15 44,-27 13,-11 23,-26 31,-43 8,-18 11,-38 11,-60l0 -327 238 -149 0 479c0,53 -10,103 -30,150 -20,46 -47,87 -82,122 -35,35 -75,63 -122,83 -47,20 -97,30 -150,30l-32 0 0 -248 42 0c17,0 33,-3 50,-10zm3185 601l0 0 0 -157 23 0 0 157 -23 0zm-104 62l0 0 -32 0 -4 -25 27 0c12,0 22,-3 31,-9 9,-6 14,-15 14,-26l0 -79 26 0 0 73c0,18 -6,33 -17,46 -12,14 -27,20 -45,20zm-51 -164l0 0c-4,0 -8,-1 -12,-4 -3,-2 -5,-6 -5,-11 0,-9 5,-13 16,-13 11,0 17,4 17,13 0,4 -2,8 -5,11 -3,3 -6,4 -11,4zm2 25l0 0 0 37c0,11 -3,20 -10,28 -6,8 -15,12 -25,12l-37 0 -7 0 -9 0 0 0c-9,-1 -17,-4 -23,-9 -8,6 -16,9 -23,9l-29 0 -12 0 -47 0 -12 0 -48 0 -12 0 -60 0 0 0c-14,-2 -24,-6 -31,-12 -5,-5 -8,-14 -8,-25l0 -117 24 0 0 106c0,11 2,18 6,21 2,1 10,2 22,3l47 0 12 0 48 0 12 0 59 0 0 0c18,-1 28,-1 31,-2 6,-2 8,-9 8,-22 0,-3 0,-8 0,-15 0,-6 0,-11 0,-14l25 0 0 34c0,8 3,13 8,16 4,1 10,2 19,3l29 0c7,0 12,-2 14,-5 3,-2 4,-7 4,-14l0 -34 25 0zm-49 -25l0 0c-4,0 -8,-1 -12,-4 -3,-2 -5,-6 -5,-11 0,-9 5,-13 16,-13 11,0 17,4 17,13 0,4 -2,8 -5,11 -3,3 -6,4 -11,4zm-414 102l0 0 -85 0 -5 -24 21 0 0 -133 24 0 0 87c15,-19 29,-28 42,-28 13,0 23,6 31,18 8,11 11,23 11,36 0,13 -3,23 -10,31 -7,9 -17,13 -29,13zm-1 -74l0 0c-8,0 -17,7 -27,19 -8,10 -14,20 -19,31l47 0c4,0 8,-3 11,-8 2,-4 3,-10 3,-18 0,-16 -5,-24 -15,-24zm-227 -96l0 0c-4,1 -7,2 -9,3 -2,2 -5,6 -8,14l-22 -9c5,-13 11,-21 15,-25 6,-4 17,-7 33,-8 4,0 16,0 35,0 6,0 17,0 31,0l0 24 -61 0c-3,0 -8,1 -14,1zm-21 93l0 0 0 38c0,12 -3,22 -8,29 -6,9 -15,13 -27,13 -12,0 -23,-6 -33,-17 -10,11 -20,17 -30,17 -11,0 -22,-7 -33,-20 -10,11 -21,17 -32,17l-17 0 -15 0 -45 0 -12 0 -47 0 -12 0 -48 0 -12 0 -47 0 -12 0 -48 0 -12 0 -59 0 0 0c-14,-2 -25,-6 -31,-12 -6,-5 -9,-14 -9,-25l0 -117 25 0 0 106c0,11 2,18 5,21 3,1 10,2 22,3l47 0 12 0 48 0 12 0 47 0 12 0 48 0 12 0 47 0 12 0 60 0 0 0 15 0c11,0 17,-6 17,-19l0 -34 24 0 0 36c0,6 2,11 6,15 4,3 9,5 15,5 11,0 17,-5 17,-15l0 -41 24 0 0 36c0,6 2,11 6,15 4,3 9,5 15,5 11,0 17,-5 17,-15l0 -41 24 0zm-677 139l0 0 -38 0c-17,0 -31,-6 -43,-19 -11,-12 -16,-27 -16,-44l0 -51 24 0 0 54c0,10 4,19 12,26 8,6 17,10 27,10l32 0c11,0 20,-4 27,-10 8,-7 12,-16 12,-26l0 -79 24 0 0 73c0,19 -5,35 -16,47 -11,13 -27,19 -45,19zm-25 -128l0 0c-12,0 -18,-5 -18,-17 0,-9 6,-14 17,-14 12,0 18,5 18,14 0,5 -2,9 -5,12 -3,4 -7,5 -12,5zm-216 128l0 0 -32 0 -3 -24 31 0c11,0 21,-4 29,-10 7,-7 11,-16 12,-28 -21,0 -35,-3 -45,-8 -12,-7 -18,-20 -18,-39 0,-21 5,-35 14,-44 6,-5 16,-7 30,-7 19,0 31,8 38,23 3,10 5,26 5,47l0 31c0,17 -6,30 -18,42 -12,11 -27,17 -43,17zm37 -112l0 0c0,-16 -7,-24 -19,-24 -8,0 -13,3 -16,8 -2,4 -3,10 -3,19 0,10 4,17 12,20 5,2 13,3 26,3l0 -26zm-181 50l0 0 -26 0 -14 0 -45 0 -12 0 -48 0 -12 0 -47 0 -12 0 -48 0 -12 0 -56 0 -3 0 -19 0 1 12c0,14 -6,26 -16,36 -11,9 -23,14 -38,14l-38 0c-19,0 -34,-7 -45,-21 -10,-13 -15,-30 -15,-50l0 -43 24 0 0 53c0,12 4,21 12,28 8,6 18,9 30,9l31 0c9,0 16,-3 22,-7 6,-5 9,-12 9,-21 0,-5 -8,-8 -23,-10 -3,0 -12,0 -28,0l-3 -24 96 0 3 0 56 0 12 0 48 0 12 0 47 0 12 0 48 0 12 0 59 0 0 0c17,-1 27,-1 29,-2 5,-2 8,-9 8,-22 0,-3 0,-8 0,-15 0,-6 0,-11 0,-14l25 0 0 37c0,11 -3,20 -10,28 -7,8 -15,12 -26,12zm-610 0l0 0 -41 0 -12 0 -47 0 -12 0 -48 0 -12 0 -59 0 0 0c-15,-2 -25,-6 -32,-12 -5,-5 -8,-14 -8,-25l0 -117 24 0 0 106c0,11 2,18 6,21 3,1 10,2 22,3l47 0 12 0 48 0 12 0 59 0 0 0 33 0c7,0 12,-2 14,-5 3,-2 4,-7 4,-14l0 -34 25 0 0 37c0,11 -3,20 -10,28 -6,8 -15,12 -25,12zm-330 0l0 0 -38 0 -14 0 -46 0 -12 0 -47 0 -12 0 -48 0 -12 0 -47 0 -12 0 -60 0 0 0c-14,-2 -24,-6 -31,-12 -6,-5 -8,-14 -8,-25l0 -117 24 0 0 106c0,11 2,18 6,21 2,1 9,2 22,3l47 0 12 0 47 0 12 0 48 0 12 0 47 0 12 0 60 0 0 0 31 0c6,0 11,-2 14,-5 2,-2 4,-7 4,-14l0 -34 24 0 0 37c0,11 -3,20 -9,28 -7,8 -15,12 -26,12zm-476 62l0 0 -38 0c-17,0 -31,-6 -42,-19 -11,-12 -17,-27 -17,-44l0 -51 24 0 0 54c0,10 4,19 12,26 8,6 17,10 28,10l31 0c11,0 20,-4 28,-10 7,-7 11,-16 11,-26l0 -79 25 0 0 73c0,19 -6,35 -17,47 -11,13 -26,19 -45,19zm-25 -128l0 0c-12,0 -18,-5 -18,-17 0,-9 6,-14 18,-14 11,0 17,5 17,14 0,5 -1,9 -5,12 -3,4 -7,5 -12,5zm468 99l0 0c11,0 17,5 17,14 0,4 -2,8 -5,11 -3,2 -6,4 -11,4 -4,0 -8,-2 -11,-4 -4,-3 -6,-6 -6,-11 0,-9 6,-14 16,-14zm47 0l0 0c11,0 17,5 17,14 0,4 -2,8 -5,11 -3,2 -6,4 -11,4 -4,0 -8,-2 -11,-4 -4,-3 -6,-6 -6,-11 0,-9 6,-14 16,-14zm283 -5l0 0c12,0 18,5 18,15 0,9 -6,13 -16,13 -12,0 -17,-4 -17,-13 0,-4 1,-8 4,-11 3,-3 7,-4 11,-4zm23 35l0 0c4,0 8,1 12,3 3,3 5,7 5,12 0,8 -5,13 -16,13 -11,0 -17,-5 -17,-13 0,-10 5,-15 16,-15zm9 -20l0 0c0,-4 1,-8 4,-11 3,-3 7,-4 11,-4 12,0 18,5 18,15 0,9 -6,13 -16,13 -12,0 -17,-4 -17,-13zm600 -12l0 0c12,0 18,5 18,15 0,5 -2,9 -5,12 -3,3 -7,5 -12,5 -12,0 -18,-6 -18,-17 0,-10 6,-15 17,-15zm1136 -31l0 0 -24 0 0 -157 24 0 0 157zm502 30l0 0c12,0 18,5 18,15 0,4 -2,8 -5,12 -4,3 -8,5 -12,5 -13,0 -19,-6 -19,-17 0,-10 6,-15 18,-15zm-3409 45l0 0 -268 0 0 -269 417 0 -149 269z"/>
   </g>
  </g>
 </g>
 <script type="text/javascript"><![CDATA[
  const fill = location.hash;
  if (fill) document.documentElement.style.setProperty('--fill', fill);
 ]]></script>
</svg>
