<?xml version="1.0" encoding="UTF-8"?>
<!DOCTYPE svg PUBLIC "-//W3C//DTD SVG 1.1//EN" "http://www.w3.org/Graphics/SVG/1.1/DTD/svg11.dtd">
<!-- Creator: CorelDRAW X7 -->
<svg xmlns="http://www.w3.org/2000/svg" xml:space="preserve" width="6.66666in" height="3.26666in" version="1.1" style="shape-rendering:geometricPrecision; text-rendering:geometricPrecision; image-rendering:optimizeQuality; fill-rule:evenodd; clip-rule:evenodd"
viewBox="0 0 6667 3267"
 xmlns:xlink="http://www.w3.org/1999/xlink">
 <defs>
  <style type="text/css"><![CDATA[
   .fil0 { fill:var(--fill, #b9b1ac) }
  ]]></style>
 </defs>
 <g id="__x0023_Layer_x0020_1">
  <metadata id="CorelCorpID_0Corel-Layer"/>
  <g id="_489553191936">
   <path class="fil0" d="M4271 1468c0,136 9,231 51,356 5,16 10,29 15,44 22,60 62,138 97,192 37,55 57,82 102,131l87 84c54,43 114,86 175,116 51,25 109,50 168,65 58,15 131,30 203,30l879 0c68,0 125,-47 155,-99 9,-15 19,-44 21,-65 9,-99 -43,-177 -133,-205 -40,-13 -111,-7 -163,-7l-514 0c-122,0 -222,3 -313,-28 -82,-27 -132,-52 -198,-101l-47 -40c-42,-42 -65,-65 -99,-115 -60,-90 -105,-215 -105,-325 0,-93 3,-152 37,-238 74,-188 227,-306 425,-355 101,-26 206,-20 316,-20 149,0 298,0 447,0 18,-35 94,-149 117,-188 19,-32 40,-63 59,-94l59 -94c-233,0 -466,0 -698,0 -175,0 -324,-13 -484,41 -98,33 -153,61 -234,115 -10,7 -17,11 -25,18l-95 79 -53 55c-27,29 -63,80 -86,114 -68,102 -128,246 -149,375 -8,48 -17,103 -17,159z"/>
   <path class="fil0" d="M0 2293c0,60 17,101 57,141 54,54 128,67 202,41 47,-17 101,-79 139,-117 88,-88 1184,-1188 1198,-1198l0 1136c0,108 87,193 188,193 108,0 191,-86 191,-196l0 -1589c0,-55 -26,-104 -54,-132 -9,-9 -13,-14 -25,-22 -62,-41 -136,-50 -202,-13 -28,16 -39,30 -60,51 -38,37 -74,73 -111,111l-1113 1113c-75,75 -148,148 -223,222 -32,33 -143,136 -162,172 -5,8 -6,8 -10,18 -8,22 -15,44 -15,69z"/>
   <path class="fil0" d="M3018 2486l915 0c50,0 98,-28 124,-54 90,-90 69,-250 -61,-308 -38,-17 -71,-14 -124,-14 -235,0 -469,0 -703,0 -188,0 -319,16 -467,-95 -20,-16 -55,-49 -70,-68 -11,-15 -20,-26 -30,-41 -55,-83 -78,-164 -87,-266l1364 0 235 -376 -1784 0c-74,0 -131,31 -166,91 -40,65 -25,130 -25,224 0,156 29,276 97,413 18,36 48,86 72,119l57 71c6,6 11,10 16,16 18,22 61,62 81,78l35 28c137,107 343,182 521,182z"/>
   <path class="fil0" d="M2137 686c0,61 9,102 54,147 30,29 77,55 120,55l1563 0c7,0 27,-36 31,-44l179 -285c10,-16 19,-32 30,-47 -583,0 -1165,0 -1747,0 -75,0 -105,0 -159,40 -14,10 -24,21 -34,35 -19,25 -37,64 -37,99z"/>
   <path class="fil0" d="M6290 216c0,-42 7,-95 35,-123 14,-14 28,-22 49,-29 55,-18 161,-16 202,28 46,50 47,198 -2,245 -13,14 -31,23 -51,28 -60,17 -146,15 -194,-26 -30,-24 -39,-85 -39,-123zm-54 -26l0 0c0,45 -2,86 15,129 7,19 22,45 37,57 18,14 36,26 60,34 79,27 208,23 271,-40 54,-54 56,-177 35,-252 -41,-141 -269,-140 -359,-72 -40,31 -59,92 -59,144z"/>
   <path class="fil0" d="M4292 3062l0 -19 -40 3 0 216 40 0 0 -165c0,-10 35,-25 59,-25 28,0 49,17 49,44l0 146 40 0 0 -115c0,-20 -2,-30 -2,-50 24,-16 35,-25 66,-25 28,0 45,20 45,49l0 141 39 0 0 -106c0,-20 -2,-32 -2,-49 0,-47 -58,-68 -87,-68 -42,0 -69,27 -80,30 -5,-4 -7,-6 -12,-11 -47,-35 -80,-14 -115,4z"/>
   <path class="fil0" d="M3893 3062l0 -19 -40 3 0 216 40 0 0 -165c0,-10 34,-25 58,-25 28,0 50,17 50,44l0 146 40 0 0 -115c0,-20 -3,-30 -3,-50 25,-16 35,-25 66,-25 29,0 45,20 45,49l0 141 40 0 0 -106c0,-20 -2,-32 -2,-49 -1,-47 -58,-68 -87,-68 -42,0 -69,27 -80,30 -6,-4 -7,-6 -13,-11 -47,-35 -80,-14 -114,4z"/>
   <path class="fil0" d="M6464 197l-51 0 0 -47c45,0 72,-8 72,26 0,12 -8,21 -21,21zm-103 124l0 0c0,12 16,7 45,7 5,0 7,-1 7,-7l0 -73c48,0 39,-4 52,18 5,8 9,15 13,23 28,48 13,39 73,39 10,0 7,-3 -2,-18l-27 -48c-5,-10 -11,-15 -13,-25 46,-25 34,-103 8,-121 -33,-23 -106,-16 -156,-16l0 221z"/>
   <path class="fil0" d="M209 3001c4,17 18,49 25,69 5,16 24,60 25,70l-102 0c1,-10 20,-58 25,-70l22 -60c2,-5 2,-6 5,-9zm-138 259l0 0c14,1 21,4 39,4 4,-16 12,-31 17,-46 6,-15 12,-43 21,-43l120 0c7,0 5,2 8,7 0,1 3,9 4,11 3,8 6,17 9,25l17 46c18,0 25,-3 40,-4l-109 -292c-7,-20 0,-16 -47,-16 -9,0 -12,18 -18,33l-88 234c-3,9 -13,32 -13,41z"/>
   <path class="fil0" d="M2186 3163c0,-32 5,-61 34,-81 20,-14 53,-6 75,1 6,2 7,3 13,5l0 134c-22,5 -36,12 -65,12 -33,0 -57,-38 -57,-71zm122 -108l0 0c-10,-2 -36,-16 -58,-16 -59,0 -101,45 -101,101 0,32 -2,75 29,100 58,49 118,14 130,13l0 9 40 0 0 -317 -40 -3 0 113z"/>
   <path class="fil0" d="M1643 2959l0 303 193 0c1,-14 2,-7 2,-31l-155 0 0 -115 132 0 0 -30 -132 0 0 -101 148 0c-1,-9 -2,-8 -2,-19 0,-9 1,-14 -7,-14l-172 0c-5,0 -7,1 -7,7z"/>
   <path class="fil0" d="M2562 3140c3,-31 27,-68 66,-68 32,0 56,32 56,65 -43,0 -78,3 -122,3zm83 127l0 0c22,-1 43,-7 61,-19 -3,-12 -9,-17 -12,-28 -57,30 -115,15 -129,-47 53,0 105,-5 159,-5 6,-36 -1,-69 -26,-96 -73,-79 -173,-5 -173,68 0,38 3,64 34,94 22,21 51,32 79,33l7 0z"/>
   <path class="fil0" d="M893 3140c3,-31 27,-68 66,-68 32,0 56,32 56,65 -43,0 -78,3 -122,3zm83 127l0 0c22,-1 43,-7 61,-19 -3,-12 -9,-17 -12,-28 -33,17 -84,25 -112,-11 -9,-12 -14,-20 -17,-36 53,0 105,-5 159,-5 6,-36 -1,-69 -26,-96 -41,-44 -101,-44 -142,-2 -14,14 -31,42 -31,70 0,38 3,64 34,94 22,21 51,32 79,33l7 0z"/>
   <path class="fil0" d="M3300 3095c0,35 -1,53 16,86 33,65 107,102 180,77l44 -15c-2,-7 -4,-25 -5,-33 -19,5 -68,40 -129,10 -88,-43 -91,-170 -10,-222 31,-19 66,-19 98,-10 13,3 20,8 32,11 2,-10 5,-21 5,-33 -26,-12 -60,-17 -92,-17 -41,0 -77,23 -97,44 -21,22 -42,61 -42,102z"/>
   <path class="fil0" d="M5543 3201c0,-41 23,-42 63,-42 43,0 33,0 33,61 0,11 -39,14 -49,14 -26,0 -47,-7 -47,-33zm-26 -144l0 0c3,12 9,17 12,29 8,-2 15,-6 24,-9 21,-6 21,-5 42,-5 43,0 47,16 47,58 -9,0 -14,-3 -22,-4 -25,-3 -43,-4 -67,5 -38,14 -48,37 -48,72 0,48 73,80 127,54l3 -2c7,3 3,-5 4,7l40 0 0 -158c0,-66 -96,-82 -162,-47z"/>
   <path class="fil0" d="M3686 3234c-93,0 -95,-162 0,-162 41,0 67,40 66,79 0,44 -27,83 -66,83zm-108 -90l0 0c0,39 6,62 34,90 101,101 243,-55 150,-161 -67,-75 -184,-18 -184,71z"/>
   <path class="fil0" d="M6131 3234c-93,0 -96,-162 0,-162 91,0 84,162 0,162zm-109 -90l0 0c0,39 7,62 35,90 19,19 46,35 75,32 146,-15 129,-227 -1,-227 -58,0 -109,48 -109,105z"/>
   <path class="fil0" d="M4950 3062l0 -19 -39 3 0 216 39 0 0 -165c0,-13 113,-65 113,33l0 111c0,12 -2,10 -2,21l40 0 2 -101c0,-14 -2,-16 -2,-28 -1,-23 2,-36 -7,-53 -10,-19 -48,-41 -78,-41 -21,0 -51,15 -66,23z"/>
   <path class="fil0" d="M1942 3062l0 -19 -40 3 0 216 40 0 0 -165c0,-13 112,-65 112,33l0 111c0,12 -2,10 -2,21l40 0 3 -101c0,-14 -3,-16 -3,-28 -1,-23 2,-36 -6,-53 -11,-19 -49,-41 -79,-41 -21,0 -50,15 -65,23z"/>
   <path class="fil0" d="M6337 3062l0 -19 -40 3 0 216 40 0 0 -165c0,-13 113,-65 113,33l0 111c0,12 -2,10 -2,21l40 0 2 -101c0,-14 -2,-16 -2,-28 -1,-23 2,-36 -7,-53 -10,-19 -48,-41 -78,-41 -21,0 -51,15 -66,23z"/>
   <path class="fil0" d="M4643 3046l0 73c0,28 2,49 2,75 0,27 10,40 26,52 14,10 34,18 57,20 18,2 51,-12 63,-13l0 11c16,0 26,-3 40,-4l0 -217c-49,0 -40,-7 -40,38l0 139c-28,14 -73,28 -97,0 -8,-8 -11,-25 -11,-40l0 -137 -40 3z"/>
   <path class="fil0" d="M2762 3093c0,21 -1,36 16,54 7,8 24,16 36,18 45,6 82,-15 82,31 0,29 -57,41 -89,35 -11,-3 -23,-9 -33,-11 -5,7 -13,19 -14,30 31,7 47,24 107,11 31,-7 67,-27 67,-63 0,-18 -1,-35 -16,-49 -36,-33 -118,4 -118,-42 0,-15 6,-23 17,-28 48,-20 81,3 93,4 2,-8 8,-18 12,-26 -10,-5 -14,-8 -27,-13 -30,-10 -74,-6 -101,8 -12,7 -32,24 -32,41z"/>
   <path class="fil0" d="M1305 3093c0,21 -2,36 15,54 30,33 90,9 109,23 12,8 26,51 -42,61 -41,6 -45,-5 -71,-11 -5,7 -13,19 -14,30 13,3 25,11 50,14 48,6 124,-12 124,-66 0,-113 -134,-30 -134,-91 0,-34 42,-35 68,-35 17,0 29,10 43,11 2,-8 8,-18 11,-26 -25,-13 -34,-18 -68,-18 -38,0 -91,19 -91,54z"/>
   <path class="fil0" d="M1093 3093c0,21 -1,36 16,54 30,33 89,9 109,23 11,8 25,51 -43,61 -41,6 -44,-5 -70,-11 -5,7 -13,19 -14,30 31,7 47,24 107,11 31,-7 67,-27 67,-63 0,-113 -134,-30 -134,-91 0,-34 41,-35 68,-35 16,0 28,10 42,11 2,-8 8,-18 12,-26 -26,-13 -35,-18 -68,-18 -38,0 -92,19 -92,54z"/>
   <path class="fil0" d="M2974 3093c0,21 -2,36 15,54 8,8 25,16 37,18 25,4 59,-4 72,5 12,8 26,51 -42,61 -15,2 -22,3 -37,0 -11,-3 -23,-9 -34,-11 -5,7 -13,19 -14,30 31,7 48,24 107,11 31,-7 67,-27 67,-63 0,-42 -13,-58 -55,-64 -30,-4 -79,8 -79,-27 0,-15 6,-23 17,-28 48,-20 81,3 94,4 2,-8 8,-18 11,-26 -9,-5 -14,-8 -26,-13 -31,-10 -75,-6 -101,8 -13,7 -32,24 -32,41z"/>
   <path class="fil0" d="M621 3140c0,39 1,62 33,93 43,43 92,40 145,15 -1,-10 -8,-21 -12,-28 -40,9 -74,32 -109,-10 -43,-51 -10,-138 41,-138 49,0 52,12 68,14 4,-8 11,-19 12,-29 -11,-6 -53,-18 -70,-18 -33,0 -56,13 -74,29 -19,18 -34,45 -34,72z"/>
   <path class="fil0" d="M5275 3140c0,39 2,62 33,93 43,43 92,40 146,15 -1,-10 -8,-21 -12,-28 -41,9 -74,32 -110,-10 -43,-51 -9,-138 42,-138 48,0 51,12 68,14 4,-8 11,-19 12,-29 -12,-6 -54,-18 -71,-18 -35,0 -61,15 -80,35 -15,18 -28,41 -28,66z"/>
   <path class="fil0" d="M386 3140c0,39 1,62 33,93 43,43 92,40 145,15 -1,-10 -8,-21 -12,-28 -40,9 -74,32 -109,-10 -43,-51 -10,-138 41,-138 49,0 52,12 68,14 4,-8 11,-19 12,-29 -11,-6 -53,-18 -70,-18 -36,0 -61,15 -80,35 -16,18 -28,41 -28,66z"/>
   <path class="fil0" d="M5773 2992l0 51 -42 0 0 31 42 0 0 150c0,22 18,35 36,39 27,6 40,-1 58,-10 -2,-12 -9,-17 -12,-29 -2,1 -44,18 -44,-2l0 -148 49 0 0 -31 -49 0c0,-79 7,-55 -38,-51z"/>
   <path class="fil0" d="M2419 2945l0 317 40 0 0 -320 -14 0c-13,0 -14,3 -26,3z"/>
   <path class="fil0" d="M5174 3046l0 216 37 0 0 -219 -16 0c-12,0 -11,2 -21,3z"/>
   <path class="fil0" d="M5926 3046l0 216 38 0 0 -219 -17 0c-12,0 -10,2 -21,3z"/>
   <path class="fil0" d="M5169 2954c0,26 47,34 47,-2 0,-31 -47,-26 -47,2z"/>
   <path class="fil0" d="M5921 2954c0,26 47,34 47,-2 0,-31 -47,-26 -47,2z"/>
  </g>
 </g>
 <script type="text/javascript"><![CDATA[
  const fill = location.hash;
  if (fill) document.documentElement.style.setProperty('--fill', fill);
 ]]></script>
</svg>
