<?xml version="1.0" encoding="UTF-8"?>
<!DOCTYPE svg PUBLIC "-//W3C//DTD SVG 1.1//EN" "http://www.w3.org/Graphics/SVG/1.1/DTD/svg11.dtd">
<!-- Creator: CorelDRAW X7 -->
<svg xmlns="http://www.w3.org/2000/svg" xml:space="preserve" width="13.9583in" height="7.9861in" version="1.1" style="shape-rendering:geometricPrecision; text-rendering:geometricPrecision; image-rendering:optimizeQuality; fill-rule:evenodd; clip-rule:evenodd"
viewBox="0 0 13958 7986"
 xmlns:xlink="http://www.w3.org/1999/xlink">
 <defs>
  <style type="text/css">
   <![CDATA[
    .fil0 {fill:#023F88}
    .fil1 {fill:#F37421}
    .fil2 {fill:#b9b1ac}
    .fil3 {fill:#896d5e}
   ]]>
  </style>
 </defs>
 <g id="Layer_x0020_1">
  <metadata id="CorelCorpID_0Corel-Layer"/>
  <g id="_356558728240">
   <path class="fil3" d="M6819 6513c1065,0 2086,-422 2882,-1128 529,-470 904,-1035 1051,-1383 -560,-1102 -1587,-2002 -2913,-2370 -408,-108 -894,-158 -1389,-88 -1126,181 -2493,922 -3273,2449 -11,53 209,418 254,491 703,1117 2139,2008 3388,2029zm145 -4641c1182,0 2140,958 2140,2140 0,1182 -958,2140 -2140,2140 -1181,0 -2139,-958 -2139,-2140 0,-1182 958,-2140 2139,-2140z"/>
   <path class="fil3" d="M0 3999l2625 0c728,-1172 2270,-2633 3808,-2885 1072,-176 1936,108 2750,826 46,42 68,68 104,92 3,2 14,-2 17,-5 -1066,-2477 -3352,-2394 -5568,-1291 -1206,587 -3151,2228 -3736,3263z"/>
   <path class="fil3" d="M6123 6810c-566,-174 -1019,-453 -1455,-855 17,65 50,137 79,199 228,501 476,799 856,1158 1368,1159 3346,636 4762,-142 1142,-611 2824,-1969 3592,-3185l-2639 0c-310,627 -1565,1940 -2488,2401 -304,148 -608,307 -937,396 -316,85 -643,136 -969,137 -269,0 -540,-29 -801,-109z"/>
   <path class="fil2" d="M6916 2902c379,0 693,113 874,417 46,66 103,208 126,291l-1889 0c61,-168 129,-337 310,-482 134,-113 337,-226 579,-226zm-1764 1000c0,358 23,611 180,931 433,876 1381,1269 2280,945 431,-155 754,-473 966,-867 48,-89 73,-172 115,-259l-902 0c-36,134 -266,301 -407,357 -470,186 -1082,62 -1301,-427 -49,-108 -72,-199 -84,-305l2805 0c11,-57 14,-97 14,-167 0,-441 -83,-804 -300,-1130l-217 -269c-367,-364 -791,-587 -1344,-587 -263,0 -545,80 -722,167 -394,194 -706,488 -903,889 -83,169 -180,470 -180,722z"/>
  </g>
 </g>
</svg>
