{
  "$schema": "http://json-schema.org/draft-07/schema",
  "$id": "style_schema",
  "title": "Markers' style and options",
  "description": "Array of group of style options, with or without conditions.\nThe last groups are more important",
  "type": "array",
  "definitions": {
    "items": {
      "type": "object",
      "title": "Group of style options",
      "required": [],
      "properties": {
        "label": {
          "type": "string",
          "title": "Shown as tooltip and fixed",
          "description": "The label or label key name on the data"
        },
        "interactive": {
          "type": "boolean",
          "title": "Interactive",
          "default": true,
          "examples": [true, false]
        },
        "iconName": {
          "type": "string",
          "title": "Icon name",
          "description": "The class name of used font icon"
        },
        "font": {
          "type": "string",
          "title": "Font name",
          "description": "Icon or label font name",
          "default": "iln"
        },
        "baseLine": {
          "type": "string",
          "title": "Marker anchor",
          "description": "The cordinates are on the middle or bottom of marker",
          "default": "middle",
          "enum": [
            "middle",
            "bottom"
          ]
        },
        "opacity": {
          "type": "number",
          "title": "Layer opacity",
          "minimum": 0,
          "maximum": 1,
          "default": 1
        },
        "fillOpacity": {
          "type": "number",
          "title": "Fill opacity",
          "minimum": 0,
          "maximum": 1,
          "default": 0.4
        },
        "fillColor": {
          "type": "string",
          "title": "Fill color",
          "description": "RGB, RGBA or Hex color"
        },
        "color": {
          "type": "string",
          "title": "Border color",
          "description": "RGB, RGBA or Hex color"
        },
        "weight": {
          "type": "number",
          "title": "Border weight",
          "default": 3
        },
        "dashArray": {
          "title": "Dash array",
          "description": "Use for dashed borders and lines",
          "oneOf": [
            {
              "type": "array",
              "items": {
                "type": "number"
              },
              "minItems": 2
            },
            {
              "type": "string",
              "default": "5"
            }
          ]
        }
      },
      "additionalProperties": true
    },
    "switch": {
      "type": "object",
      "title": "Switch Case",
      "description": "Map styles with data value",
      "minProperties": 2,
      "required": ["key"],
      "properties": {
        "key": {
          "type": "string",
          "title": "Key name",
          "description": "The key name of base value"
        },
        "is": {
          "$ref": "conditions.schema.json#/definitions/is"
        }
      },
      "additionalProperties": {
        "$ref": "#/definitions/items"
      }
    }
  },
  "minItems": 1,
  "items": {
    "allOf": [
      {
        "$ref": "#/definitions/items"
      },
      {
        "properties": {
          "if": {
            "$ref": "conditions.schema.json"
          },
          "switch": {
            "$ref": "#/definitions/switch"
          },
          "refer": {
            "title": "Refer to source",
            "description": "Read the value directly from the source data",
            "$ref": "#/definitions/items"
          },
          "labelStyle": {
            "title": "Label style options",
            "$ref": "#/definitions/items"
          }
        }
      }
    ]
  }
}
